^C:\USERS\ZURABOVA\DOCUMENTS\VISUAL STUDIO 2010\PROJECTS\OOP_LABA1\DEBUG\OOP_LABA1.EXE.EMBED.MANIFEST.RES|C:\USERS\ZURABOVA\DOCUMENTS\VISUAL STUDIO 2010\PROJECTS\OOP_LABA1\DEBUG\ИСХОДНЫЙ КОД.OBJ
C:\USERS\ZURABOVA\DOCUMENTS\VISUAL STUDIO 2010\PROJECTS\OOP_LABA1\DEBUG\OOP_LABA1.ILK
C:\USERS\ZURABOVA\DOCUMENTS\VISUAL STUDIO 2010\PROJECTS\OOP_LABA1\DEBUG\OOP_LABA1.EXE
C:\USERS\ZURABOVA\DOCUMENTS\VISUAL STUDIO 2010\PROJECTS\OOP_LABA1\DEBUG\OOP_LABA1.EXE.INTERMEDIATE.MANIFEST
C:\USERS\ZURABOVA\DOCUMENTS\VISUAL STUDIO 2010\PROJECTS\OOP_LABA1\DEBUG\OOP_LABA1.PDB
