^C:\USERS\ZURABOVA\DOCUMENTS\VISUAL STUDIO 2010\PROJECTS\LABA4_OOP\DEBUG\LABA4_OOP.EXE.INTERMEDIATE.MANIFEST
C:\USERS\ZURABOVA\DOCUMENTS\VISUAL STUDIO 2010\PROJECTS\LABA4_OOP\DEBUG\LABA4_OOP.EXE.EMBED.MANIFEST
^C:\USERS\ZURABOVA\DOCUMENTS\VISUAL STUDIO 2010\PROJECTS\LABA4_OOP\DEBUG\LABA5_OOP.EXE.INTERMEDIATE.MANIFEST
C:\USERS\ZURABOVA\DOCUMENTS\VISUAL STUDIO 2010\PROJECTS\LABA4_OOP\DEBUG\LABA5_OOP.EXE.EMBED.MANIFEST
