^D:\DROPBOX\KPI_DOCS\3 СЕМЕСТР\ООП\ТОЛЯ_ЛАБ1\ТОЛЯ_ЛАБ1\ИСХОДНЫЙ КОД.CPP
D:\DROPBOX\KPI_DOCS\3 семестр\ооп\толя_лаб1\толя_лаб1\DEBUG\VC120.PDB
D:\DROPBOX\KPI_DOCS\3 семестр\ооп\толя_лаб1\толя_лаб1\DEBUG\VC120.IDB
D:\DROPBOX\KPI_DOCS\3 Семестр\ООП\Толя_лаб1\Толя_лаб1\DEBUG\Исходный код.OBJ
