^D:\DROPBOX\KPI_DOCS\3 СЕМЕСТР\ООП\ООП_ЛАБ_5\ООП_ЛАБ_5\DEBUG\ИСХОДНЫЙ КОД.OBJ
D:\DROPBOX\KPI_DOCS\3 Семестр\ООП\ООП_Лаб_5\DEBUG\ООП_Лаб_5.ILK
D:\DROPBOX\KPI_DOCS\3 Семестр\ООП\ООП_Лаб_5\DEBUG\ООП_Лаб_5.EXE
D:\DROPBOX\KPI_DOCS\3 СЕМЕСТР\ООП\ООП_ЛАБ_5\DEBUG\ООП_ЛАБ_5.PDB
