^D:\DROPBOX\KPI_DOCS\3 СЕМЕСТР\ООП\ЛАБ2V2\ПРОЕКТ1\ПРОЕКТ1\DEBUG\ИСХОДНЫЙ КОД.OBJ
/OUT:"D:\DROPBOX\KPI_DOCS\3 СЕМЕСТР\ООП\ЛАБ2V2\ПРОЕКТ1\DEBUG\ПРОЕКТ1.EXE" /INCREMENTAL /NOLOGO kernel32.lib user32.lib gdi32.lib winspool.lib comdlg32.lib advapi32.lib shell32.lib ole32.lib oleaut32.lib uuid.lib odbc32.lib odbccp32.lib /MANIFEST /MANIFESTUAC:"level='asInvoker' uiAccess='false'" /manifest:embed /DEBUG /PDB:"D:\DROPBOX\KPI_DOCS\3 СЕМЕСТР\ООП\ЛАБ2V2\ПРОЕКТ1\DEBUG\ПРОЕКТ1.PDB" /TLBID:1 /DYNAMICBASE /NXCOMPAT /IMPLIB:"D:\DROPBOX\KPI_DOCS\3 СЕМЕСТР\ООП\ЛАБ2V2\ПРОЕКТ1\DEBUG\ПРОЕКТ1.LIB" /MACHINE:X86 "DEBUG\ИСХОДНЫЙ КОД.OBJ"
^D:\DROPBOX\KPI_DOCS\3 СЕМЕСТР\ООП\ООП ЛАБ 2 СТРУКТ\ПРОЕКТ1\DEBUG\ИСХОДНЫЙ КОД.OBJ
/OUT:"D:\DROPBOX\KPI_DOCS\3 СЕМЕСТР\ООП\ООП ЛАБ 2 СТРУКТ\DEBUG\ПРОЕКТ1.EXE" /INCREMENTAL /NOLOGO kernel32.lib user32.lib gdi32.lib winspool.lib comdlg32.lib advapi32.lib shell32.lib ole32.lib oleaut32.lib uuid.lib odbc32.lib odbccp32.lib /MANIFEST /MANIFESTUAC:"level='asInvoker' uiAccess='false'" /manifest:embed /DEBUG /PDB:"D:\DROPBOX\KPI_DOCS\3 СЕМЕСТР\ООП\ООП ЛАБ 2 СТРУКТ\DEBUG\ПРОЕКТ1.PDB" /TLBID:1 /DYNAMICBASE /NXCOMPAT /IMPLIB:"D:\DROPBOX\KPI_DOCS\3 СЕМЕСТР\ООП\ООП ЛАБ 2 СТРУКТ\DEBUG\ПРОЕКТ1.LIB" /MACHINE:X86 "DEBUG\ИСХОДНЫЙ КОД.OBJ"
^D:\DROPBOX\KPI_DOCS\3 СЕМЕСТР\ООП\ООП ЛАБ 2 СТРУКТ\ПРОЕКТ1\DEBUG\LAB03.OBJ|D:\DROPBOX\KPI_DOCS\3 СЕМЕСТР\ООП\ООП ЛАБ 2 СТРУКТ\ПРОЕКТ1\DEBUG\WEB.OBJ
/OUT:"D:\DROPBOX\KPI_DOCS\3 СЕМЕСТР\ООП\ООП ЛАБ 2 СТРУКТ\DEBUG\ПРОЕКТ1.EXE" /INCREMENTAL /NOLOGO kernel32.lib user32.lib gdi32.lib winspool.lib comdlg32.lib advapi32.lib shell32.lib ole32.lib oleaut32.lib uuid.lib odbc32.lib odbccp32.lib /MANIFEST /MANIFESTUAC:"level='asInvoker' uiAccess='false'" /manifest:embed /DEBUG /PDB:"D:\DROPBOX\KPI_DOCS\3 СЕМЕСТР\ООП\ООП ЛАБ 2 СТРУКТ\DEBUG\ПРОЕКТ1.PDB" /TLBID:1 /DYNAMICBASE /NXCOMPAT /IMPLIB:"D:\DROPBOX\KPI_DOCS\3 СЕМЕСТР\ООП\ООП ЛАБ 2 СТРУКТ\DEBUG\ПРОЕКТ1.LIB" /MACHINE:X86 DEBUG\LAB03.OBJDEBUG\WEB.OBJ
^D:\DROPBOX\KPI_DOCS\3 СЕМЕСТР\ООП\ЛАБА3\ПРОЕКТ1\DEBUG\LAB03.OBJ|D:\DROPBOX\KPI_DOCS\3 СЕМЕСТР\ООП\ЛАБА3\ПРОЕКТ1\DEBUG\WEB.OBJ
/OUT:"D:\DROPBOX\KPI_DOCS\3 СЕМЕСТР\ООП\ЛАБА3\DEBUG\ПРОЕКТ1.EXE" /INCREMENTAL /NOLOGO kernel32.lib user32.lib gdi32.lib winspool.lib comdlg32.lib advapi32.lib shell32.lib ole32.lib oleaut32.lib uuid.lib odbc32.lib odbccp32.lib /MANIFEST /MANIFESTUAC:"level='asInvoker' uiAccess='false'" /manifest:embed /DEBUG /PDB:"D:\DROPBOX\KPI_DOCS\3 СЕМЕСТР\ООП\ЛАБА3\DEBUG\ПРОЕКТ1.PDB" /TLBID:1 /DYNAMICBASE /NXCOMPAT /IMPLIB:"D:\DROPBOX\KPI_DOCS\3 СЕМЕСТР\ООП\ЛАБА3\DEBUG\ПРОЕКТ1.LIB" /MACHINE:X86 DEBUG\LAB03.OBJDEBUG\WEB.OBJ
