^C:\USERS\ZURABOVA\DOCUMENTS\VISUAL STUDIO 2010\PROJECTS\LABA1-PROBA\DEBUG\LABA1-PROBA.EXE.EMBED.MANIFEST.RES|C:\USERS\ZURABOVA\DOCUMENTS\VISUAL STUDIO 2010\PROJECTS\LABA1-PROBA\DEBUG\ИСХОДНЫЙ КОД.OBJ
C:\PROGRAM FILES (X86)\MICROSOFT SDKS\WINDOWS\V7.0A\LIB\KERNEL32.LIB
C:\PROGRAM FILES (X86)\MICROSOFT SDKS\WINDOWS\V7.0A\LIB\USER32.LIB
C:\PROGRAM FILES (X86)\MICROSOFT SDKS\WINDOWS\V7.0A\LIB\GDI32.LIB
C:\PROGRAM FILES (X86)\MICROSOFT SDKS\WINDOWS\V7.0A\LIB\WINSPOOL.LIB
C:\PROGRAM FILES (X86)\MICROSOFT SDKS\WINDOWS\V7.0A\LIB\COMDLG32.LIB
C:\PROGRAM FILES (X86)\MICROSOFT SDKS\WINDOWS\V7.0A\LIB\ADVAPI32.LIB
C:\PROGRAM FILES (X86)\MICROSOFT SDKS\WINDOWS\V7.0A\LIB\SHELL32.LIB
C:\PROGRAM FILES (X86)\MICROSOFT SDKS\WINDOWS\V7.0A\LIB\OLE32.LIB
C:\PROGRAM FILES (X86)\MICROSOFT SDKS\WINDOWS\V7.0A\LIB\OLEAUT32.LIB
C:\PROGRAM FILES (X86)\MICROSOFT SDKS\WINDOWS\V7.0A\LIB\UUID.LIB
C:\PROGRAM FILES (X86)\MICROSOFT SDKS\WINDOWS\V7.0A\LIB\ODBC32.LIB
C:\PROGRAM FILES (X86)\MICROSOFT SDKS\WINDOWS\V7.0A\LIB\ODBCCP32.LIB
C:\USERS\ZURABOVA\DOCUMENTS\VISUAL STUDIO 2010\PROJECTS\LABA1-PROBA\DEBUG\LABA1-PROBA.EXE.EMBED.MANIFEST.RES
C:\USERS\ZURABOVA\DOCUMENTS\VISUAL STUDIO 2010\PROJECTS\LABA1-PROBA\DEBUG\Исходный код.OBJ
C:\WINDOWS\SYSTEM32\TZRES.DLL
C:\USERS\ZURABOVA\DOCUMENTS\VISUAL STUDIO 2010\PROJECTS\LABA1-PROBA\DEBUG\LABA1-PROBA.ILK
C:\USERS\ZURABOVA\DOCUMENTS\VISUAL STUDIO 2010\PROJECTS\LABA1-PROBA\DEBUG\LABA1-PROBA.EXE
C:\USERS\ZURABOVA\DOCUMENTS\VISUAL STUDIO 2010\PROJECTS\LABA1-PROBA\DEBUG\LABA1-PROBA.PDB
C:\WINDOWS\GLOBALIZATION\SORTING\SORTDEFAULT.NLS
C:\PROGRAM FILES (X86)\MICROSOFT VISUAL STUDIO 10.0\VC\LIB\MSVCPRTD.LIB
C:\PROGRAM FILES (X86)\MICROSOFT VISUAL STUDIO 10.0\VC\LIB\MSVCRTD.LIB
C:\PROGRAM FILES (X86)\MICROSOFT VISUAL STUDIO 10.0\VC\LIB\OLDNAMES.LIB
