^D:\LABS_2015\OOP\LAB1_OOP\LAB1_OOP1\LAB1_OOP1\LAB1_OOP1.CPP
/c /ZI /nologo /W3 /WX- /Od /Oy- /D WIN32 /D _DEBUG /D _CONSOLE /D _LIB /D _UNICODE /D UNICODE /Gm /EHsc /RTC1 /MDd /GS /fp:precise /Zc:wchar_t /Zc:forScope /Fo"DEBUG\\" /Fd"DEBUG\VC120.PDB" /Gd /TP /analyze- D:\LABS_2015\OOP\LAB1_OOP\LAB1_OOP1\LAB1_OOP1\LAB1_OOP1.CPP
^D:\LABS_2015\OOP\LAB1_OOP\LAB1_OOP1\LAB1_OOP1\STDAFX.CPP
/c /ZI /nologo /W3 /WX- /Od /Oy- /D WIN32 /D _DEBUG /D _CONSOLE /D _LIB /D _UNICODE /D UNICODE /Gm /EHsc /RTC1 /MDd /GS /fp:precise /Zc:wchar_t /Zc:forScope /Fo"DEBUG\\" /Fd"DEBUG\VC120.PDB" /Gd /TP /analyze- D:\LABS_2015\OOP\LAB1_OOP\LAB1_OOP1\LAB1_OOP1\STDAFX.CPP
